{
  "permissions": [
    {
      "table": "users",
      "role": "Administrator",
      "select": "all",
      "insert": [
        "id",
        "email",
        "password",
        "social_ids",
        "name"
      ],
      "update": [
        "id",
        "email",
        "social_ids",
        "name"
      ],
      "delete": true
    },
    {
      "table": "users",
      "role": "Anonymous",
      "select": [],
      "insert": [],
      "update": [],
      "delete": false
    },
    {
      "delete": true,
      "insert": "all",
      "role": "Anonymous",
      "select": "all",
      "table": "book",
      "update": "all"
    },
    {
      "delete": true,
      "insert": "all",
      "role": "Anonymous",
      "select": "all",
      "table": "book_log",
      "update": "all"
    }
  ]
}